{
  "name": "cs gm",
  "groups": [
    {
      "key": "flowableAdministrator",
      "name": "Flowable Administrator"
    },
    {
      "key": "flowableUser",
      "name": "Flowable Flowable User"
    },
    {
      "key": "gmAdministrator",
      "name": "cs gm Administrator"
    },
    {
      "key": "gmUser",
      "name": "cs gm User"
    }
  ],
  "users": [
    {
      "firstName": "Flowable",
      "lastName": "Admin",
      "login": "admin",
      "email": "admin@gm.cs.com",
      "language": "en",
      "theme": "flowable",
      "userDefinitionKey": "admin-flowable"
    },
    {
      "firstName": "gm",
      "lastName": "Admin",
      "login": "gm.admin",
      "email": "gm.admin@gm.cs.com",
      "language": "en",
      "theme": "flowable",
      "userDefinitionKey": "admin-gm"
    },
    {
      "firstName": "gm",
      "lastName": "User",
      "login": "gm.user",
      "email": "gm.user@gm.cs.com",
      "language": "en",
      "theme": "flowable",
      "userDefinitionKey": "user-gm"
    }
  ]
}
